<svg width="32" height="32" viewBox="0 0 32 32" fill="none" xmlns="http://www.w3.org/2000/svg">
<path d="M15.1709 1.34029C15.1709 2.31506 15.1709 3.28982 15.1709 4.26459C15.1709 6.59022 15.1709 8.91585 15.1709 11.2415C15.1709 14.066 15.1709 16.8982 15.1709 19.7227C15.1709 22.1558 15.1709 24.5889 15.1709 27.0297C15.1709 28.2193 15.1248 29.4167 15.1709 30.6064C15.1709 30.6217 15.1709 30.6371 15.1709 30.6601C15.1709 31.6502 16.7059 31.6502 16.7059 30.6601C16.7059 29.6853 16.7059 28.7106 16.7059 27.7358C16.7059 25.4102 16.7059 23.0845 16.7059 20.7589C16.7059 17.9344 16.7059 15.1022 16.7059 12.2777C16.7059 9.84457 16.7059 7.41148 16.7059 4.97073C16.7059 3.78105 16.752 2.58369 16.7059 1.39402C16.7059 1.37866 16.7059 1.36331 16.7059 1.34029C16.7059 0.357844 15.1709 0.357844 15.1709 1.34029Z" fill="white"/>
<path d="M1.27872 16.7683C2.25349 16.7683 3.22826 16.7683 4.20303 16.7683C6.52866 16.7683 8.85429 16.7683 11.1799 16.7683C14.0044 16.7683 16.8366 16.7683 19.6612 16.7683C22.0943 16.7683 24.5273 16.7683 26.9681 16.7683C28.1578 16.7683 29.3551 16.8144 30.5448 16.7683C30.5602 16.7683 30.5755 16.7683 30.5985 16.7683C31.5887 16.7683 31.5887 15.2325 30.5985 15.2325C29.6238 15.2325 28.649 15.2325 27.6742 15.2325C25.3486 15.2325 23.023 15.2325 20.6973 15.2325C17.8728 15.2325 15.0406 15.2325 12.2161 15.2325C9.783 15.2325 7.34992 15.2325 4.90916 15.2325C3.71948 15.2325 2.52213 15.1864 1.33245 15.2325C1.3171 15.2325 1.30175 15.2325 1.27872 15.2325C0.288603 15.2325 0.288603 16.7683 1.27872 16.7683Z" fill="white"/>
<path d="M7.71777 5.84554C7.71777 7.85648 7.71777 9.87509 7.71777 11.886C7.71777 12.8761 9.25284 12.8761 9.25284 11.886C9.25284 9.87509 9.25284 7.85648 9.25284 5.84554C9.25284 4.86309 7.71777 4.86309 7.71777 5.84554Z" fill="white"/>
<path d="M5.46139 9.63786C7.47234 9.63786 9.49095 9.63786 11.5019 9.63786C12.492 9.63786 12.492 8.10205 11.5019 8.10205C9.49095 8.10205 7.47234 8.10205 5.46139 8.10205C4.47895 8.10205 4.47127 9.63786 5.46139 9.63786Z" fill="white"/>
<path d="M5.63781 21.7564C7.17288 23.2915 8.70795 24.8265 10.243 26.3616C10.9415 27.0601 12.0314 25.9779 11.3252 25.2794C9.79017 23.7443 8.2551 22.2093 6.72003 20.6742C6.02158 19.9757 4.93935 21.058 5.63781 21.7564Z" fill="white"/>
<path d="M6.72003 26.3617C8.2551 24.8266 9.79017 23.2916 11.3252 21.7565C12.0237 21.058 10.9415 19.9681 10.243 20.6743C8.70795 22.2093 7.17288 23.7444 5.63781 25.2795C4.93935 25.9779 6.02158 27.0601 6.72003 26.3617Z" fill="white"/>
<path d="M20.4975 9.63786C22.5084 9.63786 24.527 9.63786 26.538 9.63786C27.5281 9.63786 27.5281 8.10205 26.538 8.10205C24.527 8.10205 22.5084 8.10205 20.4975 8.10205C19.5074 8.10205 19.5074 9.63786 20.4975 9.63786Z" fill="white"/>
<path d="M20.4975 25.9556C22.5084 25.9556 24.527 25.9556 26.538 25.9556C27.5281 25.9556 27.5281 24.4198 26.538 24.4198C24.527 24.4198 22.5084 24.4198 20.4975 24.4198C19.5074 24.4198 19.5074 25.9556 20.4975 25.9556Z" fill="white"/>
<path d="M20.4975 22.7397C22.5084 22.7397 24.527 22.7397 26.538 22.7397C27.5281 22.7397 27.5281 21.2039 26.538 21.2039C24.527 21.2039 22.5084 21.2039 20.4975 21.2039C19.5074 21.2039 19.5074 22.7397 20.4975 22.7397Z" fill="white"/>
<rect x="0.983594" y="0.983655" width="30.0327" height="30.0327" rx="8.2" stroke="white" stroke-width="1.6"/>
</svg>
